{
  "type": "service_account",
  "project_id": "aspire-mvp-1536973199996",
  "private_key_id": "f8e3b6819137d1f2434b91b85dce94fa9379350d",
  "private_key": "-----BEGIN PRIVATE KEY-----\nMIIEuwIBADANBgkqhkiG9w0BAQEFAASCBKUwggShAgEAAoIBAQDFh6YrEzf9RdPD\nwCGLh9skH8gxnYXVntBpUQTF+FCH3KTKDsOfN6wSNRosHY+JrAa2xpq5YDK9Ug26\n8VZ1QtLmhByu/BFmOHZkbI5kWKYxu9WCj6+PGyStgGK3S9U3ppItK2c7px5+CXCp\nXxHptS0BvNNxNDH1H3iPSvm7piEVjInH/LPzdLqRKKaz7iHvMv/lQn8anwXipLSa\nvTa2BNrq4CcqO6aA9HxQokogbD0fgLWGR1FuxuNGVmmBAt71/vL1REh/Tng6rOj9\nm7mHMuXcAtDsAg/DY31qGn495jRqN6DHHCepMYgqy7GHaQb7GdqZraKWboptZAKc\nlpkP/+kfAgMBAAECgf9Eq+QZFZVhd+UnKKSA3bpR1LrEhP8CRTQvaPs/2BQnJ44i\nsP9RWwl3Sv7OV3iPZD7xTBp+V/NL3jrnwv9LxO+NNGDEdN2XrAl84ECgojElGSgh\nO9LM7aLSrs+i6bo2nrIzAePh2TfAmYeRWnvfxBzhfcQElyDHFynSpz4q/paB5ry2\nOy0wkyEk5/7UmRUKokXJycB0GOPc2ehMihKr1jCKBc/32ZzwcTHmrigTM2yiyfeJ\ntgFn3pYXVrYLCmc/Ld1f+GMd7HGumlRKIgaauzf16VUkPkpg6+1WpTJbdIv60mqg\nffo4SG7gkojKSURwoxV7huSzXWHih+lRTcSwXzECgYEA+shfZa+RrlNePKS0e7Xo\nB8MC4LhLwEa7+9iC9l/55wqw/N8hEgePgeTbloM1tfRgX057xVKC1bJZQ7YYW/Em\nSHqra0Dd8kP9fup1NlB22JOm6EmZMeVrK9Of2BfoGo6SBEmvElnjIXj2zTN5X/k4\na0G+PZqJZRv/CyXhqvOpZEkCgYEAyaOpIeiOtsIAqhkGIBHXAmzcRIVGxymY1/eY\nGlZNgp1qjv5pcpA/MvYz1tW2h6NSYMiKtAtd9q4XmqB77J5/LTMpXm5xyUFWNpvj\ncrX+t+BvM0S1SWGspyHGxcgSgwib15pz+V/Q1mnn18eCLvxnHnXRjJla1u/Ym9rD\nEKYAkicCgYEA7dRo5D6EohZeIJTytP/mdLX0XLlq3YY3cLf8Ozr5/Kqe/rF842RY\nLI+l0C/PGCgR3VDJAHEnsxHYpeZjY45nCAWN28FAuyjPlzUyw7e7fdlJSLHDnxY7\ndOzVglHpxIXA5GAcsAKe7HeTVzehu+rWHqHSkQmlk0XhsejTAxThaEECgYBMuWp8\nzYmoPs+T6aur/j3K3XM+21ugItLWso58zwP1REKsoF+tSPfTQ11cTLuEhv+sdgJZ\nGc4qM/olSxV8Zp7LqyD9npbLVoIgi1aTam6+trZ5UpaMko7olXCWB1gL5fWup0Wj\nyPKk821VbMO7by0pqPkQP7YR/Pd17lq09gVXlwKBgDih2DrGGwBnY6FGDJYJGyQf\nEEoFPboM7xMlNI5BjkKzS2Oy3Avx8jm1KKYJMIrkDe7Ot2HlxfdEh2+BsxW7pi7D\nCeTocTLybV/rHchRzV8g53NQfGLoagtTl8FkX5BTR6W6hMjjlDxbd1csRCE093Q2\ncxtjeW63M9RLlTJ5dZg4\n-----END PRIVATE KEY-----\n",
  "client_email": "aspire-mvp@aspire-mvp-1536973199996.iam.gserviceaccount.com",
  "client_id": "101867310469233332138",
  "auth_uri": "https://accounts.google.com/o/oauth2/auth",
  "token_uri": "https://oauth2.googleapis.com/token",
  "auth_provider_x509_cert_url": "https://www.googleapis.com/oauth2/v1/certs",
  "client_x509_cert_url": "https://www.googleapis.com/robot/v1/metadata/x509/aspire-mvp%40aspire-mvp-1536973199996.iam.gserviceaccount.com"
}
